id,country_id,region_id
1,92,2
2,93,2
3,95,1
4,96,2
5,98,3
6,99,3
7,101,1
8,102,1
9,103,2
10,105,3
11,106,2
12,108,3
13,109,1
14,111,3
15,112,3
16,115,1
17,116,1
18,117,2
19,119,3
20,120,3
21,122,3
22,123,5
23,124,2
24,126,5
25,128,3
26,129,3
27,131,1
28,132,1
29,134,2
30,135,5
31,137,4
32,138,5
33,140,4
34,141,2
35,143,1
36,144,2
37,146,1
38,147,3
39,149,4
40,150,5
41,151,1
42,153,2
43,3,3
44,5,3
45,7,4
46,8,2
47,9,5
48,11,2
49,13,2
50,15,4
51,16,1
52,18,4
53,19,3
54,20,2
55,23,3
56,24,4
57,25,2
58,26,1
59,28,3
60,29,2
61,31,4
62,34,3
63,35,4
64,36,2
65,37,4
66,38,3
67,41,4
68,42,3
69,43,1
70,44,4
71,45,1
72,47,1
73,48,3
74,51,4
75,52,3
76,53,4
77,55,3
78,56,1
79,58,3
80,59,5
81,61,1
82,62,3
83,65,1
84,67,1
85,68,4
86,70,3
87,72,4
88,73,4
89,74,4
90,76,1
91,77,1
92,79,2
93,81,2
94,82,1
95,84,1
96,85,4
97,87,2
98,89,3
99,90,5
100,181,4
101,182,3
102,183,2
103,184,2
104,185,5
105,186,3
106,187,1
107,189,1
108,190,4
109,191,4
110,193,5
111,194,1
112,196,2
113,197,2
114,198,3
115,1,2
116,2,1
117,4,1
118,6,4
119,10,1
120,12,4
121,14,2
122,17,1
123,21,4
124,22,1
125,27,3
126,30,3
127,32,3
128,33,3
129,39,3
130,40,3
131,46,1
132,49,4
133,50,4
134,54,3
135,57,3
136,60,1
137,63,3
138,66,3
139,69,4
140,71,3
141,75,2
142,78,2
143,80,2
144,86,2
145,88,2
146,91,1
147,94,2
148,97,3
149,100,1
150,104,3
151,107,2
152,110,5
153,113,4
154,118,1
155,121,2
156,125,1
157,127,4
158,130,2
159,133,2
160,136,2
161,139,4
162,142,1
163,145,1
164,148,4
165,152,4
166,154,3
167,155,1
168,156,3
169,157,3
170,158,2
171,159,1
172,160,1
173,161,5
174,162,3
175,163,3
176,164,2
177,165,3
178,166,1
179,167,2
180,168,4
181,169,3
182,170,4
183,171,1
184,172,1
185,173,2
186,174,2
187,175,2
188,176,3
189,177,2
190,178,2
191,179,3
192,180,5
193,188,2
194,192,2
195,195,4
196,199,3
197,64,2
198,83,2
